﻿@startuml

class Num
{
    + Value : int
}

class Tag
{
    + Value : string
}

class Printer
{
    + Context
    
    Print()
}

class Condition
{
    + bool IsTruthy(int num);
}

class Strategy
{
    + Conditions[]
    
    + bool IsTruthy(int num);
}

class Rule
{
    + Tag
    + Strategy
    
    + bool IsSuccess(int num)
}

class RuleCollection
{
    + Tag[]
    
    + bool IsSuccess(int num)
    + ITag Find(IValue<int> num, ITag defaultValue)
}


Num <-- Strategy

Tag --o Rule
Tag <- Printer

Rule --o RuleCollection

Strategy -o Rule

Condition -o Strategy

@enduml